[gd_scene load_steps=5 format=2]

[ext_resource path="res://Managers/Menu_Manager/Menu_Manager.gd" type="Script" id=1]
[ext_resource path="res://Menus/Title_Screen/Main_Menu.tscn" type="PackedScene" id=2]
[ext_resource path="res://Managers/Tutorial_Manager/Tutorial_Manager.tscn" type="PackedScene" id=3]
[ext_resource path="res://Menus/Credits/Credits.tscn" type="PackedScene" id=4]

[node name="Menu_Manager" type="Control"]
pause_mode = 2
anchor_right = 1.0
anchor_bottom = 1.0
mouse_filter = 2
script = ExtResource( 1 )
__meta__ = {
"_edit_use_anchors_": false
}
start_scene = ExtResource( 3 )

[node name="Title_Screen" parent="." instance=ExtResource( 2 )]

[node name="Credits" parent="." instance=ExtResource( 4 )]
visible = false
[connection signal="go_credits" from="Title_Screen" to="." method="_on_Title_Screen_go_credits"]
