[gd_scene load_steps=6 format=2]

[ext_resource path="res://Managers/Game_Manager/Game_Manager.gd" type="Script" id=1]
[ext_resource path="res://Entities/Hero/Hero.tscn" type="PackedScene" id=2]
[ext_resource path="res://Managers/Game_Manager/Components/Next_Level_Portal.tscn" type="PackedScene" id=3]
[ext_resource path="res://UI/Life/Life.tscn" type="PackedScene" id=4]

[sub_resource type="StyleBoxFlat" id=1]
bg_color = Color( 0.101961, 0.101961, 0.101961, 1 )

[node name="Game_Manager" type="Node2D"]
pause_mode = 2
script = ExtResource( 1 )
hero_scene = ExtResource( 2 )

[node name="BG" type="Panel" parent="."]
anchor_right = 1.0
anchor_bottom = 1.0
grow_horizontal = 2
grow_vertical = 2
custom_styles/panel = SubResource( 1 )
__meta__ = {
"_edit_use_anchors_": false
}

[node name="Game" type="Node2D" parent="."]
pause_mode = 1

[node name="Next_Level_Portal" parent="." instance=ExtResource( 3 )]

[node name="Tween" type="Tween" parent="."]
pause_mode = 2

[node name="Panel" type="Panel" parent="."]
anchor_right = 1.0
anchor_bottom = 1.0
margin_right = 1280.0
margin_bottom = 720.0
grow_horizontal = 2
grow_vertical = 2
custom_styles/panel = SubResource( 1 )
__meta__ = {
"_edit_use_anchors_": false
}

[node name="Life" parent="." instance=ExtResource( 4 )]

[node name="Timer" type="Timer" parent="."]
one_shot = true
[connection signal="portal_activated" from="Next_Level_Portal" to="." method="change_level"]
[connection signal="tween_all_completed" from="Tween" to="." method="_on_Tween_tween_all_completed"]
[connection signal="timeout" from="Timer" to="." method="_on_Timer_timeout"]
