[gd_scene load_steps=4 format=2]

[ext_resource path="res://Managers/Tutorial_Manager/Tutorial_Manager.gd" type="Script" id=1]
[ext_resource path="res://Entities/Hero/Hero.tscn" type="PackedScene" id=2]
[ext_resource path="res://Managers/Game_Manager/Game_Manager.tscn" type="PackedScene" id=3]

[node name="Tutorial_Manager" type="Node2D"]
script = ExtResource( 1 )
actual_game_scene = ExtResource( 3 )
hero_scene = ExtResource( 2 )

[node name="Tutorial_Game" type="Node2D" parent="."]

[node name="Panel" type="Panel" parent="."]
margin_right = 1280.0
margin_bottom = 720.0
__meta__ = {
"_edit_use_anchors_": false
}

[node name="Tween" type="Tween" parent="."]
pause_mode = 2
[connection signal="tween_all_completed" from="Tween" to="." method="_on_Tween_tween_all_completed"]
