[gd_scene load_steps=5 format=2]

[ext_resource path="res://Assets/Tilesheet/monochrome_transparent.png" type="Texture" id=1]
[ext_resource path="res://Entities/Guns/Angry_Emoji/Angry_Emoji.gd" type="Script" id=2]
[ext_resource path="res://Entities/Guns/Angry_Emoji/Angry.tscn" type="PackedScene" id=3]

[sub_resource type="GDScript" id=1]
script/source = "extends Sprite

func returned():
	get_parent().returned()
"

[node name="Angry_Emoji" type="Node2D" groups=[
"projectile_gun",
]]
scale = Vector2( 3, 3 )
script = ExtResource( 2 )
angry = ExtResource( 3 )

[node name="Sprite" type="Sprite" parent="."]
modulate = Color( 0.94902, 1, 0, 1 )
position = Vector2( 24, 0 )
texture = ExtResource( 1 )
vframes = 22
hframes = 48
frame = 707
script = SubResource( 1 )
[connection signal="tree_entered" from="." to="." method="_on_Angry_Emoji_tree_entered"]
