[gd_scene load_steps=4 format=2]

[ext_resource path="res://Entities/Guns/Crossbow/Crossbow.gd" type="Script" id=1]
[ext_resource path="res://Assets/Tilesheet/monochrome_transparent.png" type="Texture" id=2]
[ext_resource path="res://Entities/Guns/Crossbow/CrossbowBolt.tscn" type="PackedScene" id=3]

[node name="Crossbow" type="Node2D" groups=[
"projectile_gun",
]]
script = ExtResource( 1 )
bolt_scene = ExtResource( 3 )

[node name="Sprite" type="Sprite" parent="."]
modulate = Color( 0.619608, 0.482353, 0.388235, 1 )
position = Vector2( 70, 0 )
scale = Vector2( 5, 5 )
texture = ExtResource( 2 )
vframes = 22
hframes = 48
frame = 278
region_rect = Rect2( 0, 0, 500, 500 )

[node name="Cooldown" type="Timer" parent="."]
wait_time = 0.5
one_shot = true
